1.000000000000000000e+00 1.000000000000000000e+00 1.000000000000000000e+00 1.000000000000000000e+00 1.000000000000000000e+00 2.000000000000000000e+00
1.100000000000000000e+01 2.100000000000000000e+01 4.100000000000000000e+01 8.100000000000000000e+01 1.010000000000000000e+02 1.000000000000000000e+04
1.000000000000000000e+01 2.000000000000000000e+01 4.000000000000000000e+01 8.000000000000000000e+01 1.000000000000000000e+02 2.080000000000000000e+02
4.096000000000000000e+04 8.192000000000000000e+04 1.638400000000000000e+05 3.276800000000000000e+05 4.096000000000000000e+05 8.519680000000000000e+05
2.190890693664550781e+01 2.505628609657287598e+01 2.931012201309204102e+01 5.143896818161010742e+01 5.210923075675964355e+01 8.606096911430358887e+01
4.382874011993408203e+00 4.238734960556030273e+00 4.084012746810913086e+00 4.480669975280761719e+00 4.461115837097167969e+00 4.832849264144897461e+00
1.752603292465209961e+01 2.081755113601684570e+01 2.522610926628112793e+01 4.695829820632934570e+01 4.764811491966247559e+01 8.122811985015869141e+01
5.185718774795532227e+00 5.074187040328979492e+00 3.977440118789672852e+00 4.848083734512329102e+00 5.734816074371337891e+00 5.658518791198730469e+00
1.233818054199218722e-01 1.464586973190307728e-01 1.674812078475952093e-01 2.758857011795043945e-01 2.978289842605590931e-01 5.612472057342529075e-01
